^D:\ISMPROJECT\OPENGL TUTORIAL\OGL-MASTER\COMMON\CONTROLS.CPP|D:\ISMPROJECT\OPENGL TUTORIAL\OGL-MASTER\COMMON\SHADER.CPP|D:\ISMPROJECT\OPENGL TUTORIAL\OGL-MASTER\COMMON\TEXTURE.CPP|D:\ISMPROJECT\OPENGL TUTORIAL\OGL-MASTER\TUTORIAL18_BILLBOARDS_AND_PARTICLES\TUTORIAL18_BILLBOARDS.CPP
D:\ISMPROJECT\OPENGL TUTORIAL\TUTORIAL\TUTORIAL18_BILLBOARDS.DIR\RELEASE\TUTORIAL18_BILLBOARDS.OBJ
D:\ISMPROJECT\OPENGL TUTORIAL\TUTORIAL\TUTORIAL18_BILLBOARDS.DIR\RELEASE\TEXTURE.OBJ
D:\ISMPROJECT\OPENGL TUTORIAL\TUTORIAL\TUTORIAL18_BILLBOARDS.DIR\RELEASE\CONTROLS.OBJ
D:\ISMPROJECT\OPENGL TUTORIAL\TUTORIAL\TUTORIAL18_BILLBOARDS.DIR\RELEASE\SHADER.OBJ
