^D:\ISMPROJECT\OPENGL TUTORIAL\OGL-MASTER\COMMON\CONTROLS.CPP|D:\ISMPROJECT\OPENGL TUTORIAL\OGL-MASTER\COMMON\OBJLOADER.CPP|D:\ISMPROJECT\OPENGL TUTORIAL\OGL-MASTER\COMMON\SHADER.CPP|D:\ISMPROJECT\OPENGL TUTORIAL\OGL-MASTER\COMMON\TEXTURE.CPP|D:\ISMPROJECT\OPENGL TUTORIAL\OGL-MASTER\COMMON\VBOINDEXER.CPP|D:\ISMPROJECT\OPENGL TUTORIAL\OGL-MASTER\MISC05_PICKING\MISC05_PICKING_CUSTOM.CPP
D:\ISMPROJECT\OPENGL TUTORIAL\TUTORIAL\MISC05_PICKING_CUSTOM.DIR\RELEASE\SHADER.OBJ
D:\ISMPROJECT\OPENGL TUTORIAL\TUTORIAL\MISC05_PICKING_CUSTOM.DIR\RELEASE\VBOINDEXER.OBJ
D:\ISMPROJECT\OPENGL TUTORIAL\TUTORIAL\MISC05_PICKING_CUSTOM.DIR\RELEASE\OBJLOADER.OBJ
D:\ISMPROJECT\OPENGL TUTORIAL\TUTORIAL\MISC05_PICKING_CUSTOM.DIR\RELEASE\MISC05_PICKING_CUSTOM.OBJ
D:\ISMPROJECT\OPENGL TUTORIAL\TUTORIAL\MISC05_PICKING_CUSTOM.DIR\RELEASE\TEXTURE.OBJ
D:\ISMPROJECT\OPENGL TUTORIAL\TUTORIAL\MISC05_PICKING_CUSTOM.DIR\RELEASE\CONTROLS.OBJ
