^D:\ISMPROJECT\OPENGL TUTORIAL\OGL-MASTER\CMAKELISTS.TXT
C:\PROGRAM FILES\CMAKE\SHARE\CMAKE-3.12\MODULES\CMAKECINFORMATION.CMAKE
C:\PROGRAM FILES\CMAKE\SHARE\CMAKE-3.12\MODULES\CMAKECXXINFORMATION.CMAKE
C:\PROGRAM FILES\CMAKE\SHARE\CMAKE-3.12\MODULES\CMAKECOMMONLANGUAGEINCLUDE.CMAKE
C:\PROGRAM FILES\CMAKE\SHARE\CMAKE-3.12\MODULES\CMAKEGENERICSYSTEM.CMAKE
C:\PROGRAM FILES\CMAKE\SHARE\CMAKE-3.12\MODULES\CMAKEINITIALIZECONFIGS.CMAKE
C:\PROGRAM FILES\CMAKE\SHARE\CMAKE-3.12\MODULES\CMAKELANGUAGEINFORMATION.CMAKE
C:\PROGRAM FILES\CMAKE\SHARE\CMAKE-3.12\MODULES\CMAKERCINFORMATION.CMAKE
C:\PROGRAM FILES\CMAKE\SHARE\CMAKE-3.12\MODULES\CMAKESYSTEMSPECIFICINFORMATION.CMAKE
C:\PROGRAM FILES\CMAKE\SHARE\CMAKE-3.12\MODULES\CMAKESYSTEMSPECIFICINITIALIZE.CMAKE
C:\PROGRAM FILES\CMAKE\SHARE\CMAKE-3.12\MODULES\COMPILER\CMAKECOMMONCOMPILERMACROS.CMAKE
C:\PROGRAM FILES\CMAKE\SHARE\CMAKE-3.12\MODULES\COMPILER\MSVC-C.CMAKE
C:\PROGRAM FILES\CMAKE\SHARE\CMAKE-3.12\MODULES\COMPILER\MSVC-CXX.CMAKE
C:\PROGRAM FILES\CMAKE\SHARE\CMAKE-3.12\MODULES\FINDOPENGL.CMAKE
C:\PROGRAM FILES\CMAKE\SHARE\CMAKE-3.12\MODULES\FINDPACKAGEHANDLESTANDARDARGS.CMAKE
C:\PROGRAM FILES\CMAKE\SHARE\CMAKE-3.12\MODULES\FINDPACKAGEMESSAGE.CMAKE
C:\PROGRAM FILES\CMAKE\SHARE\CMAKE-3.12\MODULES\PLATFORM\WINDOWS-MSVC-C.CMAKE
C:\PROGRAM FILES\CMAKE\SHARE\CMAKE-3.12\MODULES\PLATFORM\WINDOWS-MSVC-CXX.CMAKE
C:\PROGRAM FILES\CMAKE\SHARE\CMAKE-3.12\MODULES\PLATFORM\WINDOWS-MSVC.CMAKE
C:\PROGRAM FILES\CMAKE\SHARE\CMAKE-3.12\MODULES\PLATFORM\WINDOWS.CMAKE
C:\PROGRAM FILES\CMAKE\SHARE\CMAKE-3.12\MODULES\PLATFORM\WINDOWSPATHS.CMAKE
D:\ISMPROJECT\OPENGL TUTORIAL\TUTORIAL\CMAKEFILES\3.12.0-RC3\CMAKECCOMPILER.CMAKE
D:\ISMPROJECT\OPENGL TUTORIAL\TUTORIAL\CMAKEFILES\3.12.0-RC3\CMAKECXXCOMPILER.CMAKE
D:\ISMPROJECT\OPENGL TUTORIAL\TUTORIAL\CMAKEFILES\3.12.0-RC3\CMAKERCCOMPILER.CMAKE
D:\ISMPROJECT\OPENGL TUTORIAL\TUTORIAL\CMAKEFILES\3.12.0-RC3\CMAKESYSTEM.CMAKE
D:\ISMPROJECT\OPENGL TUTORIAL\OGL-MASTER\EXTERNAL\RPAVLIK-CMAKE-MODULES-FE2273\CLEANDIRECTORYLIST.CMAKE
D:\ISMPROJECT\OPENGL TUTORIAL\OGL-MASTER\EXTERNAL\RPAVLIK-CMAKE-MODULES-FE2273\CREATELAUNCHERS.CMAKE
D:\ISMPROJECT\OPENGL TUTORIAL\OGL-MASTER\EXTERNAL\RPAVLIK-CMAKE-MODULES-FE2273\LISTCOMBINATIONS.CMAKE
D:\ISMPROJECT\OPENGL TUTORIAL\OGL-MASTER\EXTERNAL\RPAVLIK-CMAKE-MODULES-FE2273\MSVCMULTIPLEPROCESSCOMPILE.CMAKE
D:\ISMPROJECT\OPENGL TUTORIAL\OGL-MASTER\EXTERNAL\RPAVLIK-CMAKE-MODULES-FE2273\LAUNCHER-TEMPLATES\TARGETLAUNCHER.CMD.IN
D:\ISMPROJECT\OPENGL TUTORIAL\OGL-MASTER\EXTERNAL\RPAVLIK-CMAKE-MODULES-FE2273\LAUNCHER-TEMPLATES\VCXPROJ.USER.IN
