^D:\ISMPROJECT\OPENGL TUTORIAL\OGL-MASTER\TUTORIAL16_SHADOWMAPS\TUTORIAL16_SIMPLEVERSION.CPP
/c /I"D:\ISMPROJECT\OPENGL TUTORIAL\OGL-MASTER\EXTERNAL\ANTTWEAKBAR-1.16\INCLUDE" /I"D:\ISMPROJECT\OPENGL TUTORIAL\OGL-MASTER\EXTERNAL\GLFW-3.1.2\INCLUDE" /I"D:\ISMPROJECT\OPENGL TUTORIAL\OGL-MASTER\EXTERNAL\GLM-0.9.7.1" /I"D:\ISMPROJECT\OPENGL TUTORIAL\OGL-MASTER\EXTERNAL\GLEW-1.13.0\INCLUDE" /I"D:\ISMPROJECT\OPENGL TUTORIAL\OGL-MASTER\EXTERNAL\ASSIMP-3.0.1270\INCLUDE" /I"D:\ISMPROJECT\OPENGL TUTORIAL\OGL-MASTER\EXTERNAL\BULLET-2.81-REV2613\SRC" /I"D:\ISMPROJECT\OPENGL TUTORIAL\OGL-MASTER\." /nologo /W3 /WX- /diagnostics:classic /O2 /Ob2 /Oy- /D WIN32 /D _WINDOWS /D NDEBUG /D TW_STATIC /D TW_NO_LIB_PRAGMA /D TW_NO_DIRECT3D /D GLEW_STATIC /D _CRT_SECURE_NO_WARNINGS /D "CMAKE_INTDIR=\"Release\"" /D _MBCS /Gm- /EHsc /MD /GS /fp:precise /Zc:wchar_t /Zc:forScope /Zc:inline /GR /Fo"TUTORIAL16_SHADOWMAPS_SIMPLE.DIR\RELEASE\\" /Fd"TUTORIAL16_SHADOWMAPS_SIMPLE.DIR\RELEASE\VC141.PDB" /Gd /TP /analyze- D:\ISMPROJECT\OPENGL TUTORIAL\OGL-MASTER\TUTORIAL16_SHADOWMAPS\TUTORIAL16_SIMPLEVERSION.CPP
^D:\ISMPROJECT\OPENGL TUTORIAL\OGL-MASTER\COMMON\SHADER.CPP
/c /I"D:\ISMPROJECT\OPENGL TUTORIAL\OGL-MASTER\EXTERNAL\ANTTWEAKBAR-1.16\INCLUDE" /I"D:\ISMPROJECT\OPENGL TUTORIAL\OGL-MASTER\EXTERNAL\GLFW-3.1.2\INCLUDE" /I"D:\ISMPROJECT\OPENGL TUTORIAL\OGL-MASTER\EXTERNAL\GLM-0.9.7.1" /I"D:\ISMPROJECT\OPENGL TUTORIAL\OGL-MASTER\EXTERNAL\GLEW-1.13.0\INCLUDE" /I"D:\ISMPROJECT\OPENGL TUTORIAL\OGL-MASTER\EXTERNAL\ASSIMP-3.0.1270\INCLUDE" /I"D:\ISMPROJECT\OPENGL TUTORIAL\OGL-MASTER\EXTERNAL\BULLET-2.81-REV2613\SRC" /I"D:\ISMPROJECT\OPENGL TUTORIAL\OGL-MASTER\." /nologo /W3 /WX- /diagnostics:classic /O2 /Ob2 /Oy- /D WIN32 /D _WINDOWS /D NDEBUG /D TW_STATIC /D TW_NO_LIB_PRAGMA /D TW_NO_DIRECT3D /D GLEW_STATIC /D _CRT_SECURE_NO_WARNINGS /D "CMAKE_INTDIR=\"Release\"" /D _MBCS /Gm- /EHsc /MD /GS /fp:precise /Zc:wchar_t /Zc:forScope /Zc:inline /GR /Fo"TUTORIAL16_SHADOWMAPS_SIMPLE.DIR\RELEASE\\" /Fd"TUTORIAL16_SHADOWMAPS_SIMPLE.DIR\RELEASE\VC141.PDB" /Gd /TP /analyze- D:\ISMPROJECT\OPENGL TUTORIAL\OGL-MASTER\COMMON\SHADER.CPP
^D:\ISMPROJECT\OPENGL TUTORIAL\OGL-MASTER\COMMON\CONTROLS.CPP
/c /I"D:\ISMPROJECT\OPENGL TUTORIAL\OGL-MASTER\EXTERNAL\ANTTWEAKBAR-1.16\INCLUDE" /I"D:\ISMPROJECT\OPENGL TUTORIAL\OGL-MASTER\EXTERNAL\GLFW-3.1.2\INCLUDE" /I"D:\ISMPROJECT\OPENGL TUTORIAL\OGL-MASTER\EXTERNAL\GLM-0.9.7.1" /I"D:\ISMPROJECT\OPENGL TUTORIAL\OGL-MASTER\EXTERNAL\GLEW-1.13.0\INCLUDE" /I"D:\ISMPROJECT\OPENGL TUTORIAL\OGL-MASTER\EXTERNAL\ASSIMP-3.0.1270\INCLUDE" /I"D:\ISMPROJECT\OPENGL TUTORIAL\OGL-MASTER\EXTERNAL\BULLET-2.81-REV2613\SRC" /I"D:\ISMPROJECT\OPENGL TUTORIAL\OGL-MASTER\." /nologo /W3 /WX- /diagnostics:classic /O2 /Ob2 /Oy- /D WIN32 /D _WINDOWS /D NDEBUG /D TW_STATIC /D TW_NO_LIB_PRAGMA /D TW_NO_DIRECT3D /D GLEW_STATIC /D _CRT_SECURE_NO_WARNINGS /D "CMAKE_INTDIR=\"Release\"" /D _MBCS /Gm- /EHsc /MD /GS /fp:precise /Zc:wchar_t /Zc:forScope /Zc:inline /GR /Fo"TUTORIAL16_SHADOWMAPS_SIMPLE.DIR\RELEASE\\" /Fd"TUTORIAL16_SHADOWMAPS_SIMPLE.DIR\RELEASE\VC141.PDB" /Gd /TP /analyze- D:\ISMPROJECT\OPENGL TUTORIAL\OGL-MASTER\COMMON\CONTROLS.CPP
^D:\ISMPROJECT\OPENGL TUTORIAL\OGL-MASTER\COMMON\TEXTURE.CPP
/c /I"D:\ISMPROJECT\OPENGL TUTORIAL\OGL-MASTER\EXTERNAL\ANTTWEAKBAR-1.16\INCLUDE" /I"D:\ISMPROJECT\OPENGL TUTORIAL\OGL-MASTER\EXTERNAL\GLFW-3.1.2\INCLUDE" /I"D:\ISMPROJECT\OPENGL TUTORIAL\OGL-MASTER\EXTERNAL\GLM-0.9.7.1" /I"D:\ISMPROJECT\OPENGL TUTORIAL\OGL-MASTER\EXTERNAL\GLEW-1.13.0\INCLUDE" /I"D:\ISMPROJECT\OPENGL TUTORIAL\OGL-MASTER\EXTERNAL\ASSIMP-3.0.1270\INCLUDE" /I"D:\ISMPROJECT\OPENGL TUTORIAL\OGL-MASTER\EXTERNAL\BULLET-2.81-REV2613\SRC" /I"D:\ISMPROJECT\OPENGL TUTORIAL\OGL-MASTER\." /nologo /W3 /WX- /diagnostics:classic /O2 /Ob2 /Oy- /D WIN32 /D _WINDOWS /D NDEBUG /D TW_STATIC /D TW_NO_LIB_PRAGMA /D TW_NO_DIRECT3D /D GLEW_STATIC /D _CRT_SECURE_NO_WARNINGS /D "CMAKE_INTDIR=\"Release\"" /D _MBCS /Gm- /EHsc /MD /GS /fp:precise /Zc:wchar_t /Zc:forScope /Zc:inline /GR /Fo"TUTORIAL16_SHADOWMAPS_SIMPLE.DIR\RELEASE\\" /Fd"TUTORIAL16_SHADOWMAPS_SIMPLE.DIR\RELEASE\VC141.PDB" /Gd /TP /analyze- D:\ISMPROJECT\OPENGL TUTORIAL\OGL-MASTER\COMMON\TEXTURE.CPP
^D:\ISMPROJECT\OPENGL TUTORIAL\OGL-MASTER\COMMON\OBJLOADER.CPP
/c /I"D:\ISMPROJECT\OPENGL TUTORIAL\OGL-MASTER\EXTERNAL\ANTTWEAKBAR-1.16\INCLUDE" /I"D:\ISMPROJECT\OPENGL TUTORIAL\OGL-MASTER\EXTERNAL\GLFW-3.1.2\INCLUDE" /I"D:\ISMPROJECT\OPENGL TUTORIAL\OGL-MASTER\EXTERNAL\GLM-0.9.7.1" /I"D:\ISMPROJECT\OPENGL TUTORIAL\OGL-MASTER\EXTERNAL\GLEW-1.13.0\INCLUDE" /I"D:\ISMPROJECT\OPENGL TUTORIAL\OGL-MASTER\EXTERNAL\ASSIMP-3.0.1270\INCLUDE" /I"D:\ISMPROJECT\OPENGL TUTORIAL\OGL-MASTER\EXTERNAL\BULLET-2.81-REV2613\SRC" /I"D:\ISMPROJECT\OPENGL TUTORIAL\OGL-MASTER\." /nologo /W3 /WX- /diagnostics:classic /O2 /Ob2 /Oy- /D WIN32 /D _WINDOWS /D NDEBUG /D TW_STATIC /D TW_NO_LIB_PRAGMA /D TW_NO_DIRECT3D /D GLEW_STATIC /D _CRT_SECURE_NO_WARNINGS /D "CMAKE_INTDIR=\"Release\"" /D _MBCS /Gm- /EHsc /MD /GS /fp:precise /Zc:wchar_t /Zc:forScope /Zc:inline /GR /Fo"TUTORIAL16_SHADOWMAPS_SIMPLE.DIR\RELEASE\\" /Fd"TUTORIAL16_SHADOWMAPS_SIMPLE.DIR\RELEASE\VC141.PDB" /Gd /TP /analyze- D:\ISMPROJECT\OPENGL TUTORIAL\OGL-MASTER\COMMON\OBJLOADER.CPP
^D:\ISMPROJECT\OPENGL TUTORIAL\OGL-MASTER\COMMON\VBOINDEXER.CPP
/c /I"D:\ISMPROJECT\OPENGL TUTORIAL\OGL-MASTER\EXTERNAL\ANTTWEAKBAR-1.16\INCLUDE" /I"D:\ISMPROJECT\OPENGL TUTORIAL\OGL-MASTER\EXTERNAL\GLFW-3.1.2\INCLUDE" /I"D:\ISMPROJECT\OPENGL TUTORIAL\OGL-MASTER\EXTERNAL\GLM-0.9.7.1" /I"D:\ISMPROJECT\OPENGL TUTORIAL\OGL-MASTER\EXTERNAL\GLEW-1.13.0\INCLUDE" /I"D:\ISMPROJECT\OPENGL TUTORIAL\OGL-MASTER\EXTERNAL\ASSIMP-3.0.1270\INCLUDE" /I"D:\ISMPROJECT\OPENGL TUTORIAL\OGL-MASTER\EXTERNAL\BULLET-2.81-REV2613\SRC" /I"D:\ISMPROJECT\OPENGL TUTORIAL\OGL-MASTER\." /nologo /W3 /WX- /diagnostics:classic /O2 /Ob2 /Oy- /D WIN32 /D _WINDOWS /D NDEBUG /D TW_STATIC /D TW_NO_LIB_PRAGMA /D TW_NO_DIRECT3D /D GLEW_STATIC /D _CRT_SECURE_NO_WARNINGS /D "CMAKE_INTDIR=\"Release\"" /D _MBCS /Gm- /EHsc /MD /GS /fp:precise /Zc:wchar_t /Zc:forScope /Zc:inline /GR /Fo"TUTORIAL16_SHADOWMAPS_SIMPLE.DIR\RELEASE\\" /Fd"TUTORIAL16_SHADOWMAPS_SIMPLE.DIR\RELEASE\VC141.PDB" /Gd /TP /analyze- D:\ISMPROJECT\OPENGL TUTORIAL\OGL-MASTER\COMMON\VBOINDEXER.CPP
