^D:\ISMPROJECT\OPENGL TUTORIAL\OGL-MASTER\TUTORIAL04_COLORED_CUBE\TUTORIAL04.CPP
C:\PROGRAM FILES (X86)\WINDOWS KITS\10\INCLUDE\10.0.16299.0\UCRT\STDIO.H
C:\PROGRAM FILES (X86)\WINDOWS KITS\10\INCLUDE\10.0.16299.0\UCRT\CORECRT.H
C:\PROGRAM FILES (X86)\MICROSOFT VISUAL STUDIO\2017\COMMUNITY\VC\TOOLS\MSVC\14.11.25503\INCLUDE\VCRUNTIME.H
C:\PROGRAM FILES (X86)\MICROSOFT VISUAL STUDIO\2017\COMMUNITY\VC\TOOLS\MSVC\14.11.25503\INCLUDE\SAL.H
C:\PROGRAM FILES (X86)\MICROSOFT VISUAL STUDIO\2017\COMMUNITY\VC\TOOLS\MSVC\14.11.25503\INCLUDE\CONCURRENCYSAL.H
C:\PROGRAM FILES (X86)\MICROSOFT VISUAL STUDIO\2017\COMMUNITY\VC\TOOLS\MSVC\14.11.25503\INCLUDE\VADEFS.H
C:\PROGRAM FILES (X86)\WINDOWS KITS\10\INCLUDE\10.0.16299.0\UCRT\CORECRT_WSTDIO.H
C:\PROGRAM FILES (X86)\WINDOWS KITS\10\INCLUDE\10.0.16299.0\UCRT\CORECRT_STDIO_CONFIG.H
C:\PROGRAM FILES (X86)\WINDOWS KITS\10\INCLUDE\10.0.16299.0\UCRT\STDLIB.H
C:\PROGRAM FILES (X86)\WINDOWS KITS\10\INCLUDE\10.0.16299.0\UCRT\CORECRT_MALLOC.H
C:\PROGRAM FILES (X86)\WINDOWS KITS\10\INCLUDE\10.0.16299.0\UCRT\CORECRT_SEARCH.H
C:\PROGRAM FILES (X86)\WINDOWS KITS\10\INCLUDE\10.0.16299.0\UCRT\STDDEF.H
C:\PROGRAM FILES (X86)\WINDOWS KITS\10\INCLUDE\10.0.16299.0\UCRT\CORECRT_WSTDLIB.H
C:\PROGRAM FILES (X86)\MICROSOFT VISUAL STUDIO\2017\COMMUNITY\VC\TOOLS\MSVC\14.11.25503\INCLUDE\LIMITS.H
D:\ISMPROJECT\OPENGL TUTORIAL\OGL-MASTER\EXTERNAL\GLEW-1.13.0\INCLUDE\GL\GLEW.H
C:\PROGRAM FILES (X86)\WINDOWS KITS\10\INCLUDE\10.0.16299.0\UM\GL\GLU.H
C:\PROGRAM FILES (X86)\WINDOWS KITS\10\INCLUDE\10.0.16299.0\SHARED\WINAPIFAMILY.H
C:\PROGRAM FILES (X86)\WINDOWS KITS\10\INCLUDE\10.0.16299.0\SHARED\WINPACKAGEFAMILY.H
C:\PROGRAM FILES (X86)\WINDOWS KITS\10\INCLUDE\10.0.16299.0\UM\GL\GL.H
D:\ISMPROJECT\OPENGL TUTORIAL\OGL-MASTER\EXTERNAL\GLFW-3.1.2\INCLUDE\GLFW\GLFW3.H
D:\ISMPROJECT\OPENGL TUTORIAL\OGL-MASTER\EXTERNAL\GLM-0.9.7.1\GLM\GLM.HPP
D:\ISMPROJECT\OPENGL TUTORIAL\OGL-MASTER\EXTERNAL\GLM-0.9.7.1\GLM\DETAIL\_FIXES.HPP
C:\PROGRAM FILES (X86)\MICROSOFT VISUAL STUDIO\2017\COMMUNITY\VC\TOOLS\MSVC\14.11.25503\INCLUDE\CMATH
C:\PROGRAM FILES (X86)\MICROSOFT VISUAL STUDIO\2017\COMMUNITY\VC\TOOLS\MSVC\14.11.25503\INCLUDE\CSTDLIB
C:\PROGRAM FILES (X86)\MICROSOFT VISUAL STUDIO\2017\COMMUNITY\VC\TOOLS\MSVC\14.11.25503\INCLUDE\YVALS.H
C:\PROGRAM FILES (X86)\MICROSOFT VISUAL STUDIO\2017\COMMUNITY\VC\TOOLS\MSVC\14.11.25503\INCLUDE\XKEYCHECK.H
C:\PROGRAM FILES (X86)\MICROSOFT VISUAL STUDIO\2017\COMMUNITY\VC\TOOLS\MSVC\14.11.25503\INCLUDE\CRTDEFS.H
C:\PROGRAM FILES (X86)\MICROSOFT VISUAL STUDIO\2017\COMMUNITY\VC\TOOLS\MSVC\14.11.25503\INCLUDE\USE_ANSI.H
C:\PROGRAM FILES (X86)\WINDOWS KITS\10\INCLUDE\10.0.16299.0\UCRT\MATH.H
C:\PROGRAM FILES (X86)\WINDOWS KITS\10\INCLUDE\10.0.16299.0\UCRT\CORECRT_MATH.H
C:\PROGRAM FILES (X86)\MICROSOFT VISUAL STUDIO\2017\COMMUNITY\VC\TOOLS\MSVC\14.11.25503\INCLUDE\XTGMATH.H
C:\PROGRAM FILES (X86)\MICROSOFT VISUAL STUDIO\2017\COMMUNITY\VC\TOOLS\MSVC\14.11.25503\INCLUDE\XTR1COMMON
C:\PROGRAM FILES (X86)\MICROSOFT VISUAL STUDIO\2017\COMMUNITY\VC\TOOLS\MSVC\14.11.25503\INCLUDE\CLIMITS
C:\PROGRAM FILES (X86)\MICROSOFT VISUAL STUDIO\2017\COMMUNITY\VC\TOOLS\MSVC\14.11.25503\INCLUDE\CFLOAT
C:\PROGRAM FILES (X86)\WINDOWS KITS\10\INCLUDE\10.0.16299.0\UCRT\FLOAT.H
C:\PROGRAM FILES (X86)\MICROSOFT VISUAL STUDIO\2017\COMMUNITY\VC\TOOLS\MSVC\14.11.25503\INCLUDE\LIMITS
C:\PROGRAM FILES (X86)\MICROSOFT VISUAL STUDIO\2017\COMMUNITY\VC\TOOLS\MSVC\14.11.25503\INCLUDE\YMATH.H
C:\PROGRAM FILES (X86)\MICROSOFT VISUAL STUDIO\2017\COMMUNITY\VC\TOOLS\MSVC\14.11.25503\INCLUDE\CWCHAR
C:\PROGRAM FILES (X86)\WINDOWS KITS\10\INCLUDE\10.0.16299.0\UCRT\WCHAR.H
C:\PROGRAM FILES (X86)\WINDOWS KITS\10\INCLUDE\10.0.16299.0\UCRT\CORECRT_MEMCPY_S.H
C:\PROGRAM FILES (X86)\WINDOWS KITS\10\INCLUDE\10.0.16299.0\UCRT\ERRNO.H
C:\PROGRAM FILES (X86)\MICROSOFT VISUAL STUDIO\2017\COMMUNITY\VC\TOOLS\MSVC\14.11.25503\INCLUDE\VCRUNTIME_STRING.H
C:\PROGRAM FILES (X86)\WINDOWS KITS\10\INCLUDE\10.0.16299.0\UCRT\CORECRT_WCONIO.H
C:\PROGRAM FILES (X86)\WINDOWS KITS\10\INCLUDE\10.0.16299.0\UCRT\CORECRT_WCTYPE.H
C:\PROGRAM FILES (X86)\WINDOWS KITS\10\INCLUDE\10.0.16299.0\UCRT\CORECRT_WDIRECT.H
C:\PROGRAM FILES (X86)\WINDOWS KITS\10\INCLUDE\10.0.16299.0\UCRT\CORECRT_WIO.H
C:\PROGRAM FILES (X86)\WINDOWS KITS\10\INCLUDE\10.0.16299.0\UCRT\CORECRT_SHARE.H
C:\PROGRAM FILES (X86)\WINDOWS KITS\10\INCLUDE\10.0.16299.0\UCRT\CORECRT_WPROCESS.H
C:\PROGRAM FILES (X86)\WINDOWS KITS\10\INCLUDE\10.0.16299.0\UCRT\CORECRT_WSTRING.H
C:\PROGRAM FILES (X86)\WINDOWS KITS\10\INCLUDE\10.0.16299.0\UCRT\CORECRT_WTIME.H
C:\PROGRAM FILES (X86)\WINDOWS KITS\10\INCLUDE\10.0.16299.0\UCRT\SYS\STAT.H
C:\PROGRAM FILES (X86)\WINDOWS KITS\10\INCLUDE\10.0.16299.0\UCRT\SYS\TYPES.H
C:\PROGRAM FILES (X86)\MICROSOFT VISUAL STUDIO\2017\COMMUNITY\VC\TOOLS\MSVC\14.11.25503\INCLUDE\XSTDDEF
C:\PROGRAM FILES (X86)\MICROSOFT VISUAL STUDIO\2017\COMMUNITY\VC\TOOLS\MSVC\14.11.25503\INCLUDE\CSTDDEF
C:\PROGRAM FILES (X86)\MICROSOFT VISUAL STUDIO\2017\COMMUNITY\VC\TOOLS\MSVC\14.11.25503\INCLUDE\INITIALIZER_LIST
C:\PROGRAM FILES (X86)\MICROSOFT VISUAL STUDIO\2017\COMMUNITY\VC\TOOLS\MSVC\14.11.25503\INCLUDE\CASSERT
C:\PROGRAM FILES (X86)\WINDOWS KITS\10\INCLUDE\10.0.16299.0\UCRT\ASSERT.H
D:\ISMPROJECT\OPENGL TUTORIAL\OGL-MASTER\EXTERNAL\GLM-0.9.7.1\GLM\FWD.HPP
D:\ISMPROJECT\OPENGL TUTORIAL\OGL-MASTER\EXTERNAL\GLM-0.9.7.1\GLM\DETAIL\TYPE_INT.HPP
D:\ISMPROJECT\OPENGL TUTORIAL\OGL-MASTER\EXTERNAL\GLM-0.9.7.1\GLM\DETAIL\SETUP.HPP
C:\PROGRAM FILES (X86)\MICROSOFT VISUAL STUDIO\2017\COMMUNITY\VC\TOOLS\MSVC\14.11.25503\INCLUDE\EMMINTRIN.H
C:\PROGRAM FILES (X86)\MICROSOFT VISUAL STUDIO\2017\COMMUNITY\VC\TOOLS\MSVC\14.11.25503\INCLUDE\XMMINTRIN.H
C:\PROGRAM FILES (X86)\MICROSOFT VISUAL STUDIO\2017\COMMUNITY\VC\TOOLS\MSVC\14.11.25503\INCLUDE\MMINTRIN.H
C:\PROGRAM FILES (X86)\WINDOWS KITS\10\INCLUDE\10.0.16299.0\UCRT\MALLOC.H
C:\PROGRAM FILES (X86)\MICROSOFT VISUAL STUDIO\2017\COMMUNITY\VC\TOOLS\MSVC\14.11.25503\INCLUDE\TYPE_TRAITS
C:\PROGRAM FILES (X86)\MICROSOFT VISUAL STUDIO\2017\COMMUNITY\VC\TOOLS\MSVC\14.11.25503\INCLUDE\CSTDINT
C:\PROGRAM FILES (X86)\MICROSOFT VISUAL STUDIO\2017\COMMUNITY\VC\TOOLS\MSVC\14.11.25503\INCLUDE\STDINT.H
D:\ISMPROJECT\OPENGL TUTORIAL\OGL-MASTER\EXTERNAL\GLM-0.9.7.1\GLM\DETAIL\TYPE_FLOAT.HPP
D:\ISMPROJECT\OPENGL TUTORIAL\OGL-MASTER\EXTERNAL\GLM-0.9.7.1\GLM\DETAIL\TYPE_VEC.HPP
D:\ISMPROJECT\OPENGL TUTORIAL\OGL-MASTER\EXTERNAL\GLM-0.9.7.1\GLM\DETAIL\PRECISION.HPP
D:\ISMPROJECT\OPENGL TUTORIAL\OGL-MASTER\EXTERNAL\GLM-0.9.7.1\GLM\DETAIL\TYPE_MAT.HPP
D:\ISMPROJECT\OPENGL TUTORIAL\OGL-MASTER\EXTERNAL\GLM-0.9.7.1\GLM\VEC2.HPP
D:\ISMPROJECT\OPENGL TUTORIAL\OGL-MASTER\EXTERNAL\GLM-0.9.7.1\GLM\DETAIL\TYPE_VEC2.HPP
D:\ISMPROJECT\OPENGL TUTORIAL\OGL-MASTER\EXTERNAL\GLM-0.9.7.1\GLM\DETAIL\TYPE_VEC2.INL
D:\ISMPROJECT\OPENGL TUTORIAL\OGL-MASTER\EXTERNAL\GLM-0.9.7.1\GLM\VEC3.HPP
D:\ISMPROJECT\OPENGL TUTORIAL\OGL-MASTER\EXTERNAL\GLM-0.9.7.1\GLM\DETAIL\TYPE_VEC3.HPP
D:\ISMPROJECT\OPENGL TUTORIAL\OGL-MASTER\EXTERNAL\GLM-0.9.7.1\GLM\DETAIL\TYPE_VEC3.INL
D:\ISMPROJECT\OPENGL TUTORIAL\OGL-MASTER\EXTERNAL\GLM-0.9.7.1\GLM\VEC4.HPP
D:\ISMPROJECT\OPENGL TUTORIAL\OGL-MASTER\EXTERNAL\GLM-0.9.7.1\GLM\DETAIL\TYPE_VEC4.HPP
D:\ISMPROJECT\OPENGL TUTORIAL\OGL-MASTER\EXTERNAL\GLM-0.9.7.1\GLM\DETAIL\TYPE_VEC4.INL
D:\ISMPROJECT\OPENGL TUTORIAL\OGL-MASTER\EXTERNAL\GLM-0.9.7.1\GLM\DETAIL\TYPE_VEC4_SSE2.INL
D:\ISMPROJECT\OPENGL TUTORIAL\OGL-MASTER\EXTERNAL\GLM-0.9.7.1\GLM\MAT2X2.HPP
D:\ISMPROJECT\OPENGL TUTORIAL\OGL-MASTER\EXTERNAL\GLM-0.9.7.1\GLM\DETAIL\TYPE_MAT2X2.HPP
D:\ISMPROJECT\OPENGL TUTORIAL\OGL-MASTER\EXTERNAL\GLM-0.9.7.1\GLM\DETAIL\TYPE_MAT2X2.INL
D:\ISMPROJECT\OPENGL TUTORIAL\OGL-MASTER\EXTERNAL\GLM-0.9.7.1\GLM\MAT2X3.HPP
D:\ISMPROJECT\OPENGL TUTORIAL\OGL-MASTER\EXTERNAL\GLM-0.9.7.1\GLM\DETAIL\TYPE_MAT2X3.HPP
D:\ISMPROJECT\OPENGL TUTORIAL\OGL-MASTER\EXTERNAL\GLM-0.9.7.1\GLM\DETAIL\TYPE_MAT2X3.INL
D:\ISMPROJECT\OPENGL TUTORIAL\OGL-MASTER\EXTERNAL\GLM-0.9.7.1\GLM\MAT2X4.HPP
D:\ISMPROJECT\OPENGL TUTORIAL\OGL-MASTER\EXTERNAL\GLM-0.9.7.1\GLM\DETAIL\TYPE_MAT2X4.HPP
D:\ISMPROJECT\OPENGL TUTORIAL\OGL-MASTER\EXTERNAL\GLM-0.9.7.1\GLM\DETAIL\TYPE_MAT2X4.INL
D:\ISMPROJECT\OPENGL TUTORIAL\OGL-MASTER\EXTERNAL\GLM-0.9.7.1\GLM\MAT3X2.HPP
D:\ISMPROJECT\OPENGL TUTORIAL\OGL-MASTER\EXTERNAL\GLM-0.9.7.1\GLM\DETAIL\TYPE_MAT3X2.HPP
D:\ISMPROJECT\OPENGL TUTORIAL\OGL-MASTER\EXTERNAL\GLM-0.9.7.1\GLM\DETAIL\TYPE_MAT3X2.INL
D:\ISMPROJECT\OPENGL TUTORIAL\OGL-MASTER\EXTERNAL\GLM-0.9.7.1\GLM\MAT3X3.HPP
D:\ISMPROJECT\OPENGL TUTORIAL\OGL-MASTER\EXTERNAL\GLM-0.9.7.1\GLM\DETAIL\TYPE_MAT3X3.HPP
D:\ISMPROJECT\OPENGL TUTORIAL\OGL-MASTER\EXTERNAL\GLM-0.9.7.1\GLM\DETAIL\TYPE_MAT3X3.INL
D:\ISMPROJECT\OPENGL TUTORIAL\OGL-MASTER\EXTERNAL\GLM-0.9.7.1\GLM\MAT3X4.HPP
D:\ISMPROJECT\OPENGL TUTORIAL\OGL-MASTER\EXTERNAL\GLM-0.9.7.1\GLM\DETAIL\TYPE_MAT3X4.HPP
D:\ISMPROJECT\OPENGL TUTORIAL\OGL-MASTER\EXTERNAL\GLM-0.9.7.1\GLM\DETAIL\TYPE_MAT3X4.INL
D:\ISMPROJECT\OPENGL TUTORIAL\OGL-MASTER\EXTERNAL\GLM-0.9.7.1\GLM\MAT4X2.HPP
D:\ISMPROJECT\OPENGL TUTORIAL\OGL-MASTER\EXTERNAL\GLM-0.9.7.1\GLM\DETAIL\TYPE_MAT4X2.HPP
D:\ISMPROJECT\OPENGL TUTORIAL\OGL-MASTER\EXTERNAL\GLM-0.9.7.1\GLM\DETAIL\TYPE_MAT4X2.INL
D:\ISMPROJECT\OPENGL TUTORIAL\OGL-MASTER\EXTERNAL\GLM-0.9.7.1\GLM\MAT4X3.HPP
D:\ISMPROJECT\OPENGL TUTORIAL\OGL-MASTER\EXTERNAL\GLM-0.9.7.1\GLM\DETAIL\TYPE_MAT4X3.HPP
D:\ISMPROJECT\OPENGL TUTORIAL\OGL-MASTER\EXTERNAL\GLM-0.9.7.1\GLM\DETAIL\TYPE_MAT4X3.INL
D:\ISMPROJECT\OPENGL TUTORIAL\OGL-MASTER\EXTERNAL\GLM-0.9.7.1\GLM\MAT4X4.HPP
D:\ISMPROJECT\OPENGL TUTORIAL\OGL-MASTER\EXTERNAL\GLM-0.9.7.1\GLM\DETAIL\TYPE_MAT4X4.HPP
D:\ISMPROJECT\OPENGL TUTORIAL\OGL-MASTER\EXTERNAL\GLM-0.9.7.1\GLM\DETAIL\TYPE_MAT4X4.INL
D:\ISMPROJECT\OPENGL TUTORIAL\OGL-MASTER\EXTERNAL\GLM-0.9.7.1\GLM\TRIGONOMETRIC.HPP
D:\ISMPROJECT\OPENGL TUTORIAL\OGL-MASTER\EXTERNAL\GLM-0.9.7.1\GLM\DETAIL\FUNC_TRIGONOMETRIC.HPP
D:\ISMPROJECT\OPENGL TUTORIAL\OGL-MASTER\EXTERNAL\GLM-0.9.7.1\GLM\DETAIL\FUNC_TRIGONOMETRIC.INL
D:\ISMPROJECT\OPENGL TUTORIAL\OGL-MASTER\EXTERNAL\GLM-0.9.7.1\GLM\DETAIL\_VECTORIZE.HPP
D:\ISMPROJECT\OPENGL TUTORIAL\OGL-MASTER\EXTERNAL\GLM-0.9.7.1\GLM\DETAIL\TYPE_VEC1.HPP
D:\ISMPROJECT\OPENGL TUTORIAL\OGL-MASTER\EXTERNAL\GLM-0.9.7.1\GLM\DETAIL\TYPE_VEC1.INL
D:\ISMPROJECT\OPENGL TUTORIAL\OGL-MASTER\EXTERNAL\GLM-0.9.7.1\GLM\EXPONENTIAL.HPP
D:\ISMPROJECT\OPENGL TUTORIAL\OGL-MASTER\EXTERNAL\GLM-0.9.7.1\GLM\DETAIL\FUNC_EXPONENTIAL.HPP
D:\ISMPROJECT\OPENGL TUTORIAL\OGL-MASTER\EXTERNAL\GLM-0.9.7.1\GLM\DETAIL\FUNC_EXPONENTIAL.INL
D:\ISMPROJECT\OPENGL TUTORIAL\OGL-MASTER\EXTERNAL\GLM-0.9.7.1\GLM\DETAIL\FUNC_VECTOR_RELATIONAL.HPP
D:\ISMPROJECT\OPENGL TUTORIAL\OGL-MASTER\EXTERNAL\GLM-0.9.7.1\GLM\DETAIL\FUNC_VECTOR_RELATIONAL.INL
D:\ISMPROJECT\OPENGL TUTORIAL\OGL-MASTER\EXTERNAL\GLM-0.9.7.1\GLM\COMMON.HPP
D:\ISMPROJECT\OPENGL TUTORIAL\OGL-MASTER\EXTERNAL\GLM-0.9.7.1\GLM\DETAIL\FUNC_COMMON.HPP
D:\ISMPROJECT\OPENGL TUTORIAL\OGL-MASTER\EXTERNAL\GLM-0.9.7.1\GLM\DETAIL\FUNC_COMMON.INL
D:\ISMPROJECT\OPENGL TUTORIAL\OGL-MASTER\EXTERNAL\GLM-0.9.7.1\GLM\PACKING.HPP
D:\ISMPROJECT\OPENGL TUTORIAL\OGL-MASTER\EXTERNAL\GLM-0.9.7.1\GLM\DETAIL\FUNC_PACKING.HPP
D:\ISMPROJECT\OPENGL TUTORIAL\OGL-MASTER\EXTERNAL\GLM-0.9.7.1\GLM\DETAIL\FUNC_PACKING.INL
D:\ISMPROJECT\OPENGL TUTORIAL\OGL-MASTER\EXTERNAL\GLM-0.9.7.1\GLM\DETAIL\TYPE_HALF.HPP
D:\ISMPROJECT\OPENGL TUTORIAL\OGL-MASTER\EXTERNAL\GLM-0.9.7.1\GLM\DETAIL\TYPE_HALF.INL
D:\ISMPROJECT\OPENGL TUTORIAL\OGL-MASTER\EXTERNAL\GLM-0.9.7.1\GLM\GEOMETRIC.HPP
D:\ISMPROJECT\OPENGL TUTORIAL\OGL-MASTER\EXTERNAL\GLM-0.9.7.1\GLM\DETAIL\FUNC_GEOMETRIC.HPP
D:\ISMPROJECT\OPENGL TUTORIAL\OGL-MASTER\EXTERNAL\GLM-0.9.7.1\GLM\DETAIL\FUNC_GEOMETRIC.INL
D:\ISMPROJECT\OPENGL TUTORIAL\OGL-MASTER\EXTERNAL\GLM-0.9.7.1\GLM\MATRIX.HPP
D:\ISMPROJECT\OPENGL TUTORIAL\OGL-MASTER\EXTERNAL\GLM-0.9.7.1\GLM\DETAIL\FUNC_MATRIX.HPP
D:\ISMPROJECT\OPENGL TUTORIAL\OGL-MASTER\EXTERNAL\GLM-0.9.7.1\GLM\DETAIL\FUNC_MATRIX.INL
D:\ISMPROJECT\OPENGL TUTORIAL\OGL-MASTER\EXTERNAL\GLM-0.9.7.1\GLM\VECTOR_RELATIONAL.HPP
D:\ISMPROJECT\OPENGL TUTORIAL\OGL-MASTER\EXTERNAL\GLM-0.9.7.1\GLM\INTEGER.HPP
D:\ISMPROJECT\OPENGL TUTORIAL\OGL-MASTER\EXTERNAL\GLM-0.9.7.1\GLM\DETAIL\FUNC_INTEGER.HPP
D:\ISMPROJECT\OPENGL TUTORIAL\OGL-MASTER\EXTERNAL\GLM-0.9.7.1\GLM\DETAIL\FUNC_INTEGER.INL
C:\PROGRAM FILES (X86)\MICROSOFT VISUAL STUDIO\2017\COMMUNITY\VC\TOOLS\MSVC\14.11.25503\INCLUDE\INTRIN.H
C:\PROGRAM FILES (X86)\MICROSOFT VISUAL STUDIO\2017\COMMUNITY\VC\TOOLS\MSVC\14.11.25503\INCLUDE\INTRIN0.H
C:\PROGRAM FILES (X86)\MICROSOFT VISUAL STUDIO\2017\COMMUNITY\VC\TOOLS\MSVC\14.11.25503\INCLUDE\SETJMP.H
C:\PROGRAM FILES (X86)\MICROSOFT VISUAL STUDIO\2017\COMMUNITY\VC\TOOLS\MSVC\14.11.25503\INCLUDE\IMMINTRIN.H
C:\PROGRAM FILES (X86)\MICROSOFT VISUAL STUDIO\2017\COMMUNITY\VC\TOOLS\MSVC\14.11.25503\INCLUDE\WMMINTRIN.H
C:\PROGRAM FILES (X86)\MICROSOFT VISUAL STUDIO\2017\COMMUNITY\VC\TOOLS\MSVC\14.11.25503\INCLUDE\NMMINTRIN.H
C:\PROGRAM FILES (X86)\MICROSOFT VISUAL STUDIO\2017\COMMUNITY\VC\TOOLS\MSVC\14.11.25503\INCLUDE\SMMINTRIN.H
C:\PROGRAM FILES (X86)\MICROSOFT VISUAL STUDIO\2017\COMMUNITY\VC\TOOLS\MSVC\14.11.25503\INCLUDE\TMMINTRIN.H
C:\PROGRAM FILES (X86)\MICROSOFT VISUAL STUDIO\2017\COMMUNITY\VC\TOOLS\MSVC\14.11.25503\INCLUDE\PMMINTRIN.H
C:\PROGRAM FILES (X86)\MICROSOFT VISUAL STUDIO\2017\COMMUNITY\VC\TOOLS\MSVC\14.11.25503\INCLUDE\ZMMINTRIN.H
C:\PROGRAM FILES (X86)\MICROSOFT VISUAL STUDIO\2017\COMMUNITY\VC\TOOLS\MSVC\14.11.25503\INCLUDE\AMMINTRIN.H
C:\PROGRAM FILES (X86)\MICROSOFT VISUAL STUDIO\2017\COMMUNITY\VC\TOOLS\MSVC\14.11.25503\INCLUDE\MM3DNOW.H
D:\ISMPROJECT\OPENGL TUTORIAL\OGL-MASTER\EXTERNAL\GLM-0.9.7.1\GLM\GTC\MATRIX_TRANSFORM.HPP
D:\ISMPROJECT\OPENGL TUTORIAL\OGL-MASTER\EXTERNAL\GLM-0.9.7.1\GLM\GTC\CONSTANTS.HPP
D:\ISMPROJECT\OPENGL TUTORIAL\OGL-MASTER\EXTERNAL\GLM-0.9.7.1\GLM\GTC\CONSTANTS.INL
D:\ISMPROJECT\OPENGL TUTORIAL\OGL-MASTER\EXTERNAL\GLM-0.9.7.1\GLM\GTC\MATRIX_TRANSFORM.INL
D:\ISMPROJECT\OPENGL TUTORIAL\OGL-MASTER\COMMON\SHADER.HPP
^D:\ISMPROJECT\OPENGL TUTORIAL\OGL-MASTER\COMMON\SHADER.CPP
C:\PROGRAM FILES (X86)\WINDOWS KITS\10\INCLUDE\10.0.16299.0\UCRT\STDIO.H
C:\PROGRAM FILES (X86)\WINDOWS KITS\10\INCLUDE\10.0.16299.0\UCRT\CORECRT.H
C:\PROGRAM FILES (X86)\MICROSOFT VISUAL STUDIO\2017\COMMUNITY\VC\TOOLS\MSVC\14.11.25503\INCLUDE\VCRUNTIME.H
C:\PROGRAM FILES (X86)\MICROSOFT VISUAL STUDIO\2017\COMMUNITY\VC\TOOLS\MSVC\14.11.25503\INCLUDE\SAL.H
C:\PROGRAM FILES (X86)\MICROSOFT VISUAL STUDIO\2017\COMMUNITY\VC\TOOLS\MSVC\14.11.25503\INCLUDE\CONCURRENCYSAL.H
C:\PROGRAM FILES (X86)\MICROSOFT VISUAL STUDIO\2017\COMMUNITY\VC\TOOLS\MSVC\14.11.25503\INCLUDE\VADEFS.H
C:\PROGRAM FILES (X86)\WINDOWS KITS\10\INCLUDE\10.0.16299.0\UCRT\CORECRT_WSTDIO.H
C:\PROGRAM FILES (X86)\WINDOWS KITS\10\INCLUDE\10.0.16299.0\UCRT\CORECRT_STDIO_CONFIG.H
C:\PROGRAM FILES (X86)\MICROSOFT VISUAL STUDIO\2017\COMMUNITY\VC\TOOLS\MSVC\14.11.25503\INCLUDE\STRING
C:\PROGRAM FILES (X86)\MICROSOFT VISUAL STUDIO\2017\COMMUNITY\VC\TOOLS\MSVC\14.11.25503\INCLUDE\ISTREAM
C:\PROGRAM FILES (X86)\MICROSOFT VISUAL STUDIO\2017\COMMUNITY\VC\TOOLS\MSVC\14.11.25503\INCLUDE\OSTREAM
C:\PROGRAM FILES (X86)\MICROSOFT VISUAL STUDIO\2017\COMMUNITY\VC\TOOLS\MSVC\14.11.25503\INCLUDE\IOS
C:\PROGRAM FILES (X86)\MICROSOFT VISUAL STUDIO\2017\COMMUNITY\VC\TOOLS\MSVC\14.11.25503\INCLUDE\XLOCNUM
C:\PROGRAM FILES (X86)\MICROSOFT VISUAL STUDIO\2017\COMMUNITY\VC\TOOLS\MSVC\14.11.25503\INCLUDE\CLIMITS
C:\PROGRAM FILES (X86)\MICROSOFT VISUAL STUDIO\2017\COMMUNITY\VC\TOOLS\MSVC\14.11.25503\INCLUDE\YVALS.H
C:\PROGRAM FILES (X86)\MICROSOFT VISUAL STUDIO\2017\COMMUNITY\VC\TOOLS\MSVC\14.11.25503\INCLUDE\XKEYCHECK.H
C:\PROGRAM FILES (X86)\MICROSOFT VISUAL STUDIO\2017\COMMUNITY\VC\TOOLS\MSVC\14.11.25503\INCLUDE\CRTDEFS.H
C:\PROGRAM FILES (X86)\MICROSOFT VISUAL STUDIO\2017\COMMUNITY\VC\TOOLS\MSVC\14.11.25503\INCLUDE\USE_ANSI.H
C:\PROGRAM FILES (X86)\MICROSOFT VISUAL STUDIO\2017\COMMUNITY\VC\TOOLS\MSVC\14.11.25503\INCLUDE\LIMITS.H
C:\PROGRAM FILES (X86)\MICROSOFT VISUAL STUDIO\2017\COMMUNITY\VC\TOOLS\MSVC\14.11.25503\INCLUDE\CMATH
C:\PROGRAM FILES (X86)\MICROSOFT VISUAL STUDIO\2017\COMMUNITY\VC\TOOLS\MSVC\14.11.25503\INCLUDE\CSTDLIB
C:\PROGRAM FILES (X86)\WINDOWS KITS\10\INCLUDE\10.0.16299.0\UCRT\STDLIB.H
C:\PROGRAM FILES (X86)\WINDOWS KITS\10\INCLUDE\10.0.16299.0\UCRT\CORECRT_MALLOC.H
C:\PROGRAM FILES (X86)\WINDOWS KITS\10\INCLUDE\10.0.16299.0\UCRT\CORECRT_SEARCH.H
C:\PROGRAM FILES (X86)\WINDOWS KITS\10\INCLUDE\10.0.16299.0\UCRT\STDDEF.H
C:\PROGRAM FILES (X86)\WINDOWS KITS\10\INCLUDE\10.0.16299.0\UCRT\CORECRT_WSTDLIB.H
C:\PROGRAM FILES (X86)\WINDOWS KITS\10\INCLUDE\10.0.16299.0\UCRT\MATH.H
C:\PROGRAM FILES (X86)\WINDOWS KITS\10\INCLUDE\10.0.16299.0\UCRT\CORECRT_MATH.H
C:\PROGRAM FILES (X86)\MICROSOFT VISUAL STUDIO\2017\COMMUNITY\VC\TOOLS\MSVC\14.11.25503\INCLUDE\XTGMATH.H
C:\PROGRAM FILES (X86)\MICROSOFT VISUAL STUDIO\2017\COMMUNITY\VC\TOOLS\MSVC\14.11.25503\INCLUDE\XTR1COMMON
C:\PROGRAM FILES (X86)\MICROSOFT VISUAL STUDIO\2017\COMMUNITY\VC\TOOLS\MSVC\14.11.25503\INCLUDE\CSTDIO
C:\PROGRAM FILES (X86)\MICROSOFT VISUAL STUDIO\2017\COMMUNITY\VC\TOOLS\MSVC\14.11.25503\INCLUDE\STREAMBUF
C:\PROGRAM FILES (X86)\MICROSOFT VISUAL STUDIO\2017\COMMUNITY\VC\TOOLS\MSVC\14.11.25503\INCLUDE\XIOSBASE
C:\PROGRAM FILES (X86)\MICROSOFT VISUAL STUDIO\2017\COMMUNITY\VC\TOOLS\MSVC\14.11.25503\INCLUDE\XLOCALE
C:\PROGRAM FILES (X86)\MICROSOFT VISUAL STUDIO\2017\COMMUNITY\VC\TOOLS\MSVC\14.11.25503\INCLUDE\CSTRING
C:\PROGRAM FILES (X86)\WINDOWS KITS\10\INCLUDE\10.0.16299.0\UCRT\STRING.H
C:\PROGRAM FILES (X86)\WINDOWS KITS\10\INCLUDE\10.0.16299.0\UCRT\CORECRT_MEMORY.H
C:\PROGRAM FILES (X86)\WINDOWS KITS\10\INCLUDE\10.0.16299.0\UCRT\CORECRT_MEMCPY_S.H
C:\PROGRAM FILES (X86)\WINDOWS KITS\10\INCLUDE\10.0.16299.0\UCRT\ERRNO.H
C:\PROGRAM FILES (X86)\MICROSOFT VISUAL STUDIO\2017\COMMUNITY\VC\TOOLS\MSVC\14.11.25503\INCLUDE\VCRUNTIME_STRING.H
C:\PROGRAM FILES (X86)\WINDOWS KITS\10\INCLUDE\10.0.16299.0\UCRT\CORECRT_WSTRING.H
C:\PROGRAM FILES (X86)\MICROSOFT VISUAL STUDIO\2017\COMMUNITY\VC\TOOLS\MSVC\14.11.25503\INCLUDE\STDEXCEPT
C:\PROGRAM FILES (X86)\MICROSOFT VISUAL STUDIO\2017\COMMUNITY\VC\TOOLS\MSVC\14.11.25503\INCLUDE\EXCEPTION
C:\PROGRAM FILES (X86)\MICROSOFT VISUAL STUDIO\2017\COMMUNITY\VC\TOOLS\MSVC\14.11.25503\INCLUDE\TYPE_TRAITS
C:\PROGRAM FILES (X86)\MICROSOFT VISUAL STUDIO\2017\COMMUNITY\VC\TOOLS\MSVC\14.11.25503\INCLUDE\XSTDDEF
C:\PROGRAM FILES (X86)\MICROSOFT VISUAL STUDIO\2017\COMMUNITY\VC\TOOLS\MSVC\14.11.25503\INCLUDE\CSTDDEF
C:\PROGRAM FILES (X86)\MICROSOFT VISUAL STUDIO\2017\COMMUNITY\VC\TOOLS\MSVC\14.11.25503\INCLUDE\INITIALIZER_LIST
C:\PROGRAM FILES (X86)\WINDOWS KITS\10\INCLUDE\10.0.16299.0\UCRT\MALLOC.H
C:\PROGRAM FILES (X86)\MICROSOFT VISUAL STUDIO\2017\COMMUNITY\VC\TOOLS\MSVC\14.11.25503\INCLUDE\VCRUNTIME_EXCEPTION.H
C:\PROGRAM FILES (X86)\MICROSOFT VISUAL STUDIO\2017\COMMUNITY\VC\TOOLS\MSVC\14.11.25503\INCLUDE\EH.H
C:\PROGRAM FILES (X86)\WINDOWS KITS\10\INCLUDE\10.0.16299.0\UCRT\CORECRT_TERMINATE.H
C:\PROGRAM FILES (X86)\MICROSOFT VISUAL STUDIO\2017\COMMUNITY\VC\TOOLS\MSVC\14.11.25503\INCLUDE\XSTRING
C:\PROGRAM FILES (X86)\MICROSOFT VISUAL STUDIO\2017\COMMUNITY\VC\TOOLS\MSVC\14.11.25503\INCLUDE\XMEMORY0
C:\PROGRAM FILES (X86)\MICROSOFT VISUAL STUDIO\2017\COMMUNITY\VC\TOOLS\MSVC\14.11.25503\INCLUDE\CSTDINT
C:\PROGRAM FILES (X86)\MICROSOFT VISUAL STUDIO\2017\COMMUNITY\VC\TOOLS\MSVC\14.11.25503\INCLUDE\STDINT.H
C:\PROGRAM FILES (X86)\MICROSOFT VISUAL STUDIO\2017\COMMUNITY\VC\TOOLS\MSVC\14.11.25503\INCLUDE\LIMITS
C:\PROGRAM FILES (X86)\MICROSOFT VISUAL STUDIO\2017\COMMUNITY\VC\TOOLS\MSVC\14.11.25503\INCLUDE\YMATH.H
C:\PROGRAM FILES (X86)\MICROSOFT VISUAL STUDIO\2017\COMMUNITY\VC\TOOLS\MSVC\14.11.25503\INCLUDE\CFLOAT
C:\PROGRAM FILES (X86)\WINDOWS KITS\10\INCLUDE\10.0.16299.0\UCRT\FLOAT.H
C:\PROGRAM FILES (X86)\MICROSOFT VISUAL STUDIO\2017\COMMUNITY\VC\TOOLS\MSVC\14.11.25503\INCLUDE\CWCHAR
C:\PROGRAM FILES (X86)\WINDOWS KITS\10\INCLUDE\10.0.16299.0\UCRT\WCHAR.H
C:\PROGRAM FILES (X86)\WINDOWS KITS\10\INCLUDE\10.0.16299.0\UCRT\CORECRT_WCONIO.H
C:\PROGRAM FILES (X86)\WINDOWS KITS\10\INCLUDE\10.0.16299.0\UCRT\CORECRT_WCTYPE.H
C:\PROGRAM FILES (X86)\WINDOWS KITS\10\INCLUDE\10.0.16299.0\UCRT\CORECRT_WDIRECT.H
C:\PROGRAM FILES (X86)\WINDOWS KITS\10\INCLUDE\10.0.16299.0\UCRT\CORECRT_WIO.H
C:\PROGRAM FILES (X86)\WINDOWS KITS\10\INCLUDE\10.0.16299.0\UCRT\CORECRT_SHARE.H
C:\PROGRAM FILES (X86)\WINDOWS KITS\10\INCLUDE\10.0.16299.0\UCRT\CORECRT_WPROCESS.H
C:\PROGRAM FILES (X86)\WINDOWS KITS\10\INCLUDE\10.0.16299.0\UCRT\CORECRT_WTIME.H
C:\PROGRAM FILES (X86)\WINDOWS KITS\10\INCLUDE\10.0.16299.0\UCRT\SYS\STAT.H
C:\PROGRAM FILES (X86)\WINDOWS KITS\10\INCLUDE\10.0.16299.0\UCRT\SYS\TYPES.H
C:\PROGRAM FILES (X86)\MICROSOFT VISUAL STUDIO\2017\COMMUNITY\VC\TOOLS\MSVC\14.11.25503\INCLUDE\NEW
C:\PROGRAM FILES (X86)\MICROSOFT VISUAL STUDIO\2017\COMMUNITY\VC\TOOLS\MSVC\14.11.25503\INCLUDE\VCRUNTIME_NEW.H
C:\PROGRAM FILES (X86)\MICROSOFT VISUAL STUDIO\2017\COMMUNITY\VC\TOOLS\MSVC\14.11.25503\INCLUDE\XUTILITY
C:\PROGRAM FILES (X86)\MICROSOFT VISUAL STUDIO\2017\COMMUNITY\VC\TOOLS\MSVC\14.11.25503\INCLUDE\UTILITY
C:\PROGRAM FILES (X86)\MICROSOFT VISUAL STUDIO\2017\COMMUNITY\VC\TOOLS\MSVC\14.11.25503\INCLUDE\IOSFWD
C:\PROGRAM FILES (X86)\WINDOWS KITS\10\INCLUDE\10.0.16299.0\UCRT\CRTDBG.H
C:\PROGRAM FILES (X86)\MICROSOFT VISUAL STUDIO\2017\COMMUNITY\VC\TOOLS\MSVC\14.11.25503\INCLUDE\VCRUNTIME_NEW_DEBUG.H
C:\PROGRAM FILES (X86)\MICROSOFT VISUAL STUDIO\2017\COMMUNITY\VC\TOOLS\MSVC\14.11.25503\INCLUDE\XATOMIC0.H
C:\PROGRAM FILES (X86)\MICROSOFT VISUAL STUDIO\2017\COMMUNITY\VC\TOOLS\MSVC\14.11.25503\INCLUDE\INTRIN0.H
C:\PROGRAM FILES (X86)\MICROSOFT VISUAL STUDIO\2017\COMMUNITY\VC\TOOLS\MSVC\14.11.25503\INCLUDE\TYPEINFO
C:\PROGRAM FILES (X86)\MICROSOFT VISUAL STUDIO\2017\COMMUNITY\VC\TOOLS\MSVC\14.11.25503\INCLUDE\VCRUNTIME_TYPEINFO.H
C:\PROGRAM FILES (X86)\MICROSOFT VISUAL STUDIO\2017\COMMUNITY\VC\TOOLS\MSVC\14.11.25503\INCLUDE\XLOCINFO
C:\PROGRAM FILES (X86)\MICROSOFT VISUAL STUDIO\2017\COMMUNITY\VC\TOOLS\MSVC\14.11.25503\INCLUDE\XLOCINFO.H
C:\PROGRAM FILES (X86)\WINDOWS KITS\10\INCLUDE\10.0.16299.0\UCRT\CTYPE.H
C:\PROGRAM FILES (X86)\WINDOWS KITS\10\INCLUDE\10.0.16299.0\UCRT\LOCALE.H
C:\PROGRAM FILES (X86)\MICROSOFT VISUAL STUDIO\2017\COMMUNITY\VC\TOOLS\MSVC\14.11.25503\INCLUDE\XFACET
C:\PROGRAM FILES (X86)\MICROSOFT VISUAL STUDIO\2017\COMMUNITY\VC\TOOLS\MSVC\14.11.25503\INCLUDE\SYSTEM_ERROR
C:\PROGRAM FILES (X86)\MICROSOFT VISUAL STUDIO\2017\COMMUNITY\VC\TOOLS\MSVC\14.11.25503\INCLUDE\CERRNO
C:\PROGRAM FILES (X86)\MICROSOFT VISUAL STUDIO\2017\COMMUNITY\VC\TOOLS\MSVC\14.11.25503\INCLUDE\XCALL_ONCE.H
C:\PROGRAM FILES (X86)\WINDOWS KITS\10\INCLUDE\10.0.16299.0\UCRT\SHARE.H
C:\PROGRAM FILES (X86)\MICROSOFT VISUAL STUDIO\2017\COMMUNITY\VC\TOOLS\MSVC\14.11.25503\INCLUDE\XSTRING_INSERT.H
C:\PROGRAM FILES (X86)\MICROSOFT VISUAL STUDIO\2017\COMMUNITY\VC\TOOLS\MSVC\14.11.25503\INCLUDE\VECTOR
C:\PROGRAM FILES (X86)\MICROSOFT VISUAL STUDIO\2017\COMMUNITY\VC\TOOLS\MSVC\14.11.25503\INCLUDE\XMEMORY
C:\PROGRAM FILES (X86)\MICROSOFT VISUAL STUDIO\2017\COMMUNITY\VC\TOOLS\MSVC\14.11.25503\INCLUDE\IOSTREAM
C:\PROGRAM FILES (X86)\MICROSOFT VISUAL STUDIO\2017\COMMUNITY\VC\TOOLS\MSVC\14.11.25503\INCLUDE\FSTREAM
C:\PROGRAM FILES (X86)\MICROSOFT VISUAL STUDIO\2017\COMMUNITY\VC\TOOLS\MSVC\14.11.25503\INCLUDE\ALGORITHM
C:\PROGRAM FILES (X86)\MICROSOFT VISUAL STUDIO\2017\COMMUNITY\VC\TOOLS\MSVC\14.11.25503\INCLUDE\SSTREAM
D:\ISMPROJECT\OPENGL TUTORIAL\OGL-MASTER\EXTERNAL\GLEW-1.13.0\INCLUDE\GL\GLEW.H
C:\PROGRAM FILES (X86)\WINDOWS KITS\10\INCLUDE\10.0.16299.0\UM\GL\GLU.H
C:\PROGRAM FILES (X86)\WINDOWS KITS\10\INCLUDE\10.0.16299.0\SHARED\WINAPIFAMILY.H
C:\PROGRAM FILES (X86)\WINDOWS KITS\10\INCLUDE\10.0.16299.0\SHARED\WINPACKAGEFAMILY.H
C:\PROGRAM FILES (X86)\WINDOWS KITS\10\INCLUDE\10.0.16299.0\UM\GL\GL.H
D:\ISMPROJECT\OPENGL TUTORIAL\OGL-MASTER\COMMON\SHADER.HPP
